<?xml version="1.0" encoding="utf-8"?>
<!-- Generator: Adobe Illustrator 16.0.4, SVG Export Plug-In . SVG Version: 6.00 Build 0)  -->
<!DOCTYPE svg PUBLIC "-//W3C//DTD SVG 1.1//EN" "http://www.w3.org/Graphics/SVG/1.1/DTD/svg11.dtd">
<svg version="1.1" id="Layer_1" xmlns="http://www.w3.org/2000/svg" xmlns:xlink="http://www.w3.org/1999/xlink" x="0px" y="0px"
	 width="32px" height="32px" viewBox="0 0 32 32" enable-background="new 0 0 32 32" xml:space="preserve">
<path fill="#05A5AD" d="M30.631,27.979c0,1.519-1.228,2.748-2.746,2.748H4.066c-1.517,0-2.747-1.229-2.747-2.748V4.16
	c0-1.517,1.23-2.747,2.747-2.747h23.818c1.519,0,2.746,1.229,2.746,2.747V27.979z"/>
<text transform="matrix(1 0 0 1 8.0586 20.5342)" fill="#FFFFFF" font-family="'SavoyeLetPlain'" font-size="20.1845">A</text>
</svg>
